<?xml version="1.0" encoding="UTF-8"?>
<svg width="59px" height="59px" viewBox="0 0 59 59" version="1.1" xmlns="http://www.w3.org/2000/svg" xmlns:xlink="http://www.w3.org/1999/xlink">
    <!-- Generator: Sketch 60.1 (88133) - https://sketch.com -->
    <title>Oval</title>
    <desc>Created with Sketch.</desc>
    <g id="Update-6-dec-BLUE" stroke="none" stroke-width="1" fill="none" fill-rule="evenodd" opacity="0.200000003">
        <g id="MG-Benefits-SaveBig" transform="translate(-521.000000, -42.000000)" fill="#7C93A6" fill-rule="nonzero">
            <g id="Group-13" transform="translate(521.000000, 42.000000)">
                <path d="M30.5,0.5 L30.5,7.5 L29.5,7.5 L29.5,0.5 L30.5,0.5 Z M36.1375609,1.24614353 L34.7789075,8.11302499 L33.7979245,7.91893165 L35.1565779,1.05205019 L36.1375609,1.24614353 Z M41.5256571,3.08503596 L38.8442423,9.55110235 L37.9205185,9.16804309 L40.6019334,2.7019767 L41.5256571,3.08503596 Z M46.4756435,5.96419186 L42.5741646,11.776116 L41.7438897,11.2187619 L45.6453686,5.40683773 L46.4756435,5.96419186 Z M50.7493321,9.73977527 L45.7906033,14.680525 L45.0847819,13.9721352 L50.0435107,9.03138543 L50.7493321,9.73977527 Z M54.1850633,14.2405451 L48.3643623,18.1289176 L47.8088805,17.2973889 L53.6295815,13.4090164 L54.1850633,14.2405451 Z M56.7062176,19.3891397 L50.2334906,22.0544363 L49.852734,21.129761 L56.325461,18.4644645 L56.7062176,19.3891397 Z M58.1639038,24.9613333 L51.2905808,26.2870146 L51.1011978,25.3051113 L57.9745208,23.97943 L58.1639038,24.9613333 Z M58.4961954,30.6067187 L51.496241,30.5814419 L51.4998529,29.5814419 L58.4998073,29.6067252 L58.4961954,30.6067187 Z M57.7291658,36.2421542 L50.8673867,34.8579622 L51.0651284,33.877708 L57.9269075,35.2619001 L57.7291658,36.2421542 Z M55.8700611,41.6236599 L49.4140571,38.9181077 L49.8005646,37.9958214 L56.2565685,40.7013737 L55.8700611,41.6236599 Z M52.9717316,46.5639923 L47.1744976,42.6407184 L47.7349653,41.8125421 L53.5321993,45.735816 L52.9717316,46.5639923 Z M49.2184043,50.7881612 L44.2873626,45.8197783 L44.9971316,45.1153438 L49.9281733,50.0837266 L49.2184043,50.7881612 Z M44.6688643,54.2409411 L40.801837,48.4060375 L41.6353946,47.8536051 L45.5024219,53.6885086 L44.6688643,54.2409411 Z M39.5070942,56.7445697 L36.8666365,50.2616704 L37.792765,49.8844621 L40.4332227,56.3673614 L39.5070942,56.7445697 Z M33.929541,58.1808447 L32.6301349,51.302506 L33.6127547,51.1168765 L34.9121608,57.9952153 L33.929541,58.1808447 Z M28.2851962,58.4919458 L28.3361081,51.4921309 L29.3360817,51.4994041 L29.2851698,58.4992189 L28.2851962,58.4919458 Z M22.6534007,57.7040989 L24.0631033,50.8475153 L25.0426153,51.0489014 L23.6329126,57.905485 L22.6534007,57.7040989 Z M17.2785381,55.8248078 L20.0081793,49.3789519 L20.9290159,49.7689006 L18.1993746,56.2147565 L17.2785381,55.8248078 Z M12.3479137,52.9073344 L16.2929209,47.124868 L17.1189875,47.6884405 L13.1739803,53.4709069 L12.3479137,52.9073344 Z M8.13810517,49.1385364 L13.124824,44.2260386 L13.8266094,44.938427 L8.83989058,49.8509248 L8.13810517,49.1385364 Z M4.70208456,44.5757233 L10.5514779,40.7306489 L11.1007742,41.5662765 L5.2513809,45.411351 L4.70208456,44.5757233 Z M2.218408,39.4057461 L8.71113787,36.7895545 L9.08487953,37.7170873 L2.59214967,40.333279 L2.218408,39.4057461 Z M0.803040418,33.8230931 L7.68617129,32.5493155 L7.86813952,33.5326199 L0.985008649,34.8063976 L0.803040418,33.8230931 Z M0.512698602,28.1772081 L7.51228015,28.253747 L7.50134602,29.2536872 L0.501764474,29.1771483 L0.512698602,28.1772081 Z M1.32134347,22.5491046 L8.17263856,23.9842895 L7.96761216,24.9630459 L1.11631706,23.5278611 L1.32134347,22.5491046 Z M3.22196885,17.1784377 L9.65732778,19.9327353 L9.26385669,20.8520723 L2.82849776,18.0977747 L3.22196885,17.1784377 Z M6.15738255,12.2600752 L11.9250042,16.226754 L11.3583358,17.0507 L5.59071415,13.0840212 L6.15738255,12.2600752 Z M9.93959921,8.06650141 L14.833951,13.0710314 L14.1190181,13.7702245 L9.22466635,8.76569452 L9.93959921,8.06650141 Z M14.5176471,4.64545154 L18.3407076,10.5092565 L17.5030212,11.055408 L13.6799607,5.19160304 L14.5176471,4.64545154 Z M19.695775,2.18175272 L22.2876533,8.68422661 L21.3587285,9.05449494 L18.7668501,2.55202105 L19.695775,2.18175272 Z M25.2862783,0.786904097 L26.5337258,7.6748555 L25.5497328,7.8530623 L24.3022852,0.96511089 L25.2862783,0.786904097 Z" id="Oval"></path>
            </g>
        </g>
    </g>
</svg>